EDA Findings
…
Some activities, such as reading books, are widely accessible than others, such as attending a live opera. As such, the expected predictor variables are in the table below.

local_arts_train %>%
  select(starts_with("n"), hhsize, over18, age, marital, educ, race, income, gender, weight)

## # A tibble: 2,890 x 27
##    njazz nclassic nopera nmusical nplay nballet nodance nmuseum nfair npark
##    <dbl>    <dbl>  <dbl>    <dbl> <dbl>   <dbl>   <dbl>   <dbl> <dbl> <dbl>
##  1     0        0      0        0     0       0       0       0     0     1
##  2     0        0      0        0     0       0       0       3     0     3
##  3     0        0      0        1     0       0       1       1     1     0
##  4     0        0      0        0     0       0       0       0     1     0
##  5     0        0      0        0     0       0       0       0     0     0
##  6     0        0      0        0     0       0       0       0     0     0
##  7     0        0      3        1     0       0       3       4     0    12
##  8     0        0      0        0     0       0       0       0     0     0
##  9     0        0      0        0     0       0       0       3     0     1
## 10     4        1      1        2     0       1       0       0     3     0
## #  with 2,880 more rows, and 17 more variables: nbooks <dbl>, ntvjazz <dbl>,
## #   ntvclass <dbl>, ntvopera <dbl>, ntvmus <dbl>, ntvplay <dbl>,
## #   ntvdance <dbl>, ntvart <dbl>, hhsize <dbl>, over18 <dbl>, age <dbl>,
## #   marital <fct>, educ <fct>, race <fct>, income <fct>, gender <fct>,
## #   weight <dbl>
…
